% simple sparse matrix in matrix market format containing 64 non-zeros
%
% first non-comment line: <number of rows> <number of columns> <number of non-zeros>
% followed by data in the form <row> <column> <value>
%
% example from finite difference method on 4 x 4 grid
16 16 64
1 1  4
2 1 -1
5 1 -1
1 2 -2
2 2  4
3 2 -1
6 2 -1
2 3 -1
3 3  4
4 3 -2
7 3 -1
3 4 -1
4 4  4
8 4 -1
1 5 -2
5 5  4
6 5 -1
9 5 -1
2 6 -2
5 6 -2
6 6  4
7 6 -1
10 6 -1
3 7 -2
6 7 -1
7 7  4
8 7 -2
11 7 -1
4 8 -2
7 8 -1
8 8  4
12 8 -1
5 9 -1
9 9  4
10 9 -1
13 9 -2
6 10 -1
9 10 -2
10 10  4
11 10 -1
14 10 -2
7 11 -1
10 11 -1
11 11  4
12 11 -2
15 11 -2
8 12 -1
11 12 -1
12 12  4
16 12 -2
9 13 -1
13 13  4
14 13 -1
10 14 -1
13 14 -2
14 14  4
15 14 -1
11 15 -1
14 15 -1
15 15  4
16 15 -2
12 16 -1
15 16 -1
16 16  4
